{
  "uid" : "83edc06c07f9ae9e47eb6dd1b683e4e2",
  "name" : "packages",
  "children" : [ {
    "name" : "test_login",
    "children" : [ {
      "name" : "test_login[udata0]",
      "uid" : "b2419ddec7f4a7b",
      "parentUid" : "03f1661ca992eb99488d3d9f2a012d80",
      "status" : "passed",
      "time" : {
        "start" : 1667545078988,
        "stop" : 1667545080229,
        "duration" : 1241
      },
      "flaky" : false,
      "newFailed" : false,
      "parameters" : [ "{'uname': 15555211512, 'upas': '2000zhang'}" ]
    }, {
      "name" : "test_login[udata1]",
      "uid" : "17c3146f49aac48a",
      "parentUid" : "03f1661ca992eb99488d3d9f2a012d80",
      "status" : "passed",
      "time" : {
        "start" : 1667545091170,
        "stop" : 1667545092043,
        "duration" : 873
      },
      "flaky" : false,
      "newFailed" : false,
      "parameters" : [ "{'uname': 15555211513, 'upas': '2000zhang'}" ]
    }, {
      "name" : "test_01",
      "uid" : "983e505dfc9bd60b",
      "parentUid" : "03f1661ca992eb99488d3d9f2a012d80",
      "status" : "failed",
      "time" : {
        "start" : 1667545102810,
        "stop" : 1667545102810,
        "duration" : 0
      },
      "flaky" : false,
      "newFailed" : false,
      "parameters" : [ ]
    } ],
    "uid" : "03f1661ca992eb99488d3d9f2a012d80"
  } ]
}