{
  "uid" : "83edc06c07f9ae9e47eb6dd1b683e4e2",
  "name" : "packages",
  "children" : [ {
    "name" : "xueqiuTestCase.test_search",
    "children" : [ {
      "name" : "test_search[京东-50]",
      "uid" : "69d3e2f2b739d74d",
      "parentUid" : "4b921cb2b12207f4d6add043212d4d2f",
      "status" : "passed",
      "time" : {
        "start" : 1671090935659,
        "stop" : 1671090973084,
        "duration" : 37425
      },
      "flaky" : false,
      "newFailed" : false,
      "parameters" : [ "'京东'", "'50'" ]
    }, {
      "name" : "test_search[alibaba-80]",
      "uid" : "715c3761b04bad74",
      "parentUid" : "4b921cb2b12207f4d6add043212d4d2f",
      "status" : "passed",
      "time" : {
        "start" : 1671090973096,
        "stop" : 1671091000085,
        "duration" : 26989
      },
      "flaky" : false,
      "newFailed" : false,
      "parameters" : [ "'alibaba'", "'80'" ]
    }, {
      "name" : "test_photo",
      "uid" : "740feb14ab8e4097",
      "parentUid" : "4b921cb2b12207f4d6add043212d4d2f",
      "status" : "passed",
      "time" : {
        "start" : 1671091000103,
        "stop" : 1671091024258,
        "duration" : 24155
      },
      "flaky" : false,
      "newFailed" : false,
      "parameters" : [ ]
    } ],
    "uid" : "xueqiuTestCase.test_search"
  } ]
}